$TTL 86400
$ORIGIN stream.me.

@       IN      SOA     ns.stream.me. root.stream.me. (
                20110601        ; Serial
                3H              ; Refresh after 3 hours
                1H              ; Retry after 1 hour
                1W              ; Expire after 1 week
                1D )            ; Minimum TTL of 1 day

                NS      ns.stream.me.

@               A      	172.16.100.1 
gatekeeper	    A	    172.16.100.1
api	            A	    172.16.100.1
ns              A       172.16.100.1
