$TTL 86400
$ORIGIN stream.me.

@       IN      SOA     ns.stream.me. root.stream.me. (
                20110601        ; Serial
                3H              ; Refresh after 3 hours
                1H              ; Retry after 1 hour
                1W              ; Expire after 1 week
                1D )            ; Minimum TTL of 1 day

                NS      ns.stream.me.

@		        A	    192.168.100.1
gatekeeper	    A	    192.168.100.1
ns              A       192.168.100.2
services	    A	    192.168.100.2
itv		        A	    192.168.100.3
streamer	    A	    192.168.100.4
